{
  "photos": {
    "page": 1,
    "pages": 1707,
    "perpage": 100,
    "total": "170636",
    "photo": [
      {
        "id": "48820212372",
        "owner": "135162570@N03",
        "secret": "2bbb5d92b0",
        "server": "65535",
        "farm": 66,
        "title": "Casper 7 month make fluffy cat",
        "ispublic": 1,
        "isfriend": 0,
        "isfamily": 0
      },
      {
        "id": "48820016711",
        "owner": "135162570@N03",
        "secret": "1e415cf3fd",
        "server": "65535",
        "farm": 66,
        "title": "Moki 4-5 month male mau mix",
        "ispublic": 1,
        "isfriend": 0,
        "isfamily": 0
      },
      {
        "id": "48819206458",
        "owner": "148650174@N04",
        "secret": "ecf2510aab",
        "server": "65535",
        "farm": 66,
        "title": "Faith",
        "ispublic": 1,
        "isfriend": 0,
        "isfamily": 0
      },
      {
        "id": "48819041558",
        "owner": "153237179@N02",
        "secret": "e5800a9f5b",
        "server": "65535",
        "farm": 66,
        "title": "LOST femle tabby kitten #bridlewood. Pls rt, watch, share, help to get this baby home! YYC Pet Recovery shared a post. I know this is a long shot but we are missing one of our kittens, if anyone has seen her in the last week we are in the Bridlewood area.",
        "ispublic": 1,
        "isfriend": 0,
        "isfamily": 0
      },
      {
        "id": "48819382677",
        "owner": "67511122@N08",
        "secret": "4ef5dae6b5",
        "server": "65535",
        "farm": 66,
        "title": "I am 3 weeks old",
        "ispublic": 1,
        "isfriend": 0,
        "isfamily": 0
      },
      {
        "id": "48819206756",
        "owner": "184755705@N06",
        "secret": "65762c951e",
        "server": "65535",
        "farm": 66,
        "title": "kitten_flower_1600x1200",
        "ispublic": 1,
        "isfriend": 0,
        "isfamily": 0
      },
      {
        "id": "48819053451",
        "owner": "184704802@N05",
        "secret": "c36d667243",
        "server": "65535",
        "farm": 66,
        "title": "Mia",
        "ispublic": 1,
        "isfriend": 0,
        "isfamily": 0
      },
      {
        "id": "48819200972",
        "owner": "184704802@N05",
        "secret": "b6ddf99e70",
        "server": "65535",
        "farm": 66,
        "title": "Gracie Grey",
        "ispublic": 1,
        "isfriend": 0,
        "isfamily": 0
      },
      {
        "id": "48818528153",
        "owner": "184704802@N05",
        "secret": "ecbb0e851e",
        "server": "65535",
        "farm": 66,
        "title": "Mia the British Shorthair",
        "ispublic": 1,
        "isfriend": 0,
        "isfamily": 0
      },
      {
        "id": "48818881181",
        "owner": "184704802@N05",
        "secret": "ceb7e35fb0",
        "server": "65535",
        "farm": 66,
        "title": "Mia - Black & White",
        "ispublic": 1,
        "isfriend": 0,
        "isfamily": 0
      },
      {
        "id": "48818407288",
        "owner": "143537090@N02",
        "secret": "b60fa1b481",
        "server": "65535",
        "farm": 66,
        "title": "Ginger Cat",
        "ispublic": 1,
        "isfriend": 0,
        "isfamily": 0
      },
      {
        "id": "48818418216",
        "owner": "9566421@N05",
        "secret": "1d399d518c",
        "server": "65535",
        "farm": 66,
        "title": "1982 March 27 Gary and Mom and a kitten (1)",
        "ispublic": 1,
        "isfriend": 0,
        "isfamily": 0
      },
      {
        "id": "48817594708",
        "owner": "65879219@N00",
        "secret": "f22f17e58a",
        "server": "65535",
        "farm": 66,
        "title": "190928 Nebula DEBF0529 copy",
        "ispublic": 1,
        "isfriend": 0,
        "isfamily": 0
      },
      {
        "id": "48817829796",
        "owner": "38081097@N08",
        "secret": "46cc539e2e",
        "server": "65535",
        "farm": 66,
        "title": "All sizes | My Life Story by Tom Cat | Flickr - Photo Sharing! #kitten #illustration #cat - Popular Inspiration — Designspiration",
        "ispublic": 1,
        "isfriend": 0,
        "isfamily": 0
      },
      {
        "id": "48817316843",
        "owner": "40167758@N05",
        "secret": "6ff824eced",
        "server": "65535",
        "farm": 66,
        "title": "A Lynx coming from behind a tree",
        "ispublic": 1,
        "isfriend": 0,
        "isfamily": 0
      },
      {
        "id": "48817188098",
        "owner": "154335070@N05",
        "secret": "260d68e538",
        "server": "65535",
        "farm": 66,
        "title": "Hungry kitty",
        "ispublic": 1,
        "isfriend": 0,
        "isfamily": 0
      },
      {
        "id": "48817042343",
        "owner": "49998540@N03",
        "secret": "860765639f",
        "server": "65535",
        "farm": 66,
        "title": "ふとんころがりねこ #ねこ #猫 #cat #gatto #chat #kitten",
        "ispublic": 1,
        "isfriend": 0,
        "isfamily": 0
      },
      {
        "id": "48817210996",
        "owner": "147057396@N03",
        "secret": "42d4561b06",
        "server": "65535",
        "farm": 66,
        "title": "Kitten pink",
        "ispublic": 1,
        "isfriend": 0,
        "isfamily": 0
      },
      {
        "id": "48817122332",
        "owner": "27450769@N06",
        "secret": "bdf19af702",
        "server": "65535",
        "farm": 66,
        "title": "What's your story..?",
        "ispublic": 1,
        "isfriend": 0,
        "isfamily": 0
      },
      {
        "id": "48817290452",
        "owner": "184716790@N04",
        "secret": "748756cbc3",
        "server": "65535",
        "farm": 66,
        "title": "us and kittens",
        "ispublic": 1,
        "isfriend": 0,
        "isfamily": 0
      },
      {
        "id": "48816612851",
        "owner": "51388540@N05",
        "secret": "6c881c540b",
        "server": "65535",
        "farm": 66,
        "title": "GFX2100 - Family",
        "ispublic": 1,
        "isfriend": 0,
        "isfamily": 0
      },
      {
        "id": "48816683877",
        "owner": "25101853@N00",
        "secret": "f2cd829988",
        "server": "0",
        "farm": 0,
        "title": "DSCN3767",
        "ispublic": 1,
        "isfriend": 0,
        "isfamily": 0
      },
      {
        "id": "48816114848",
        "owner": "25101853@N00",
        "secret": "64aae4d015",
        "server": "65535",
        "farm": 66,
        "title": "DSCN3766",
        "ispublic": 1,
        "isfriend": 0,
        "isfamily": 0
      },
      {
        "id": "48816459996",
        "owner": "167249487@N08",
        "secret": "3f49439182",
        "server": "65535",
        "farm": 66,
        "title": "joys of a kitten",
        "ispublic": 1,
        "isfriend": 0,
        "isfamily": 0
      },
      {
        "id": "48816616607",
        "owner": "167249487@N08",
        "secret": "fbfdd5bbf2",
        "server": "65535",
        "farm": 66,
        "title": "joys of a kitten",
        "ispublic": 1,
        "isfriend": 0,
        "isfamily": 0
      },
      {
        "id": "48816459876",
        "owner": "167249487@N08",
        "secret": "1d0199b5dc",
        "server": "65535",
        "farm": 66,
        "title": "joys of a kitten",
        "ispublic": 1,
        "isfriend": 0,
        "isfamily": 0
      },
      {
        "id": "48816102498",
        "owner": "167249487@N08",
        "secret": "db35d62c0a",
        "server": "65535",
        "farm": 66,
        "title": "joys of a kitten",
        "ispublic": 1,
        "isfriend": 0,
        "isfamily": 0
      },
      {
        "id": "48816616247",
        "owner": "167249487@N08",
        "secret": "9a15f877b9",
        "server": "65535",
        "farm": 66,
        "title": "joys of a kitten",
        "ispublic": 1,
        "isfriend": 0,
        "isfamily": 0
      },
      {
        "id": "48816459531",
        "owner": "167249487@N08",
        "secret": "536dba072c",
        "server": "65535",
        "farm": 66,
        "title": "joys of a kitten",
        "ispublic": 1,
        "isfriend": 0,
        "isfamily": 0
      },
      {
        "id": "48816459471",
        "owner": "167249487@N08",
        "secret": "fd7f04be5a",
        "server": "65535",
        "farm": 66,
        "title": "joys of a kitten",
        "ispublic": 1,
        "isfriend": 0,
        "isfamily": 0
      },
      {
        "id": "48815892963",
        "owner": "66317558@N00",
        "secret": "75e0245329",
        "server": "65535",
        "farm": 66,
        "title": "Blue Kitten",
        "ispublic": 1,
        "isfriend": 0,
        "isfamily": 0
      },
      {
        "id": "48816175896",
        "owner": "63432462@N03",
        "secret": "3dc2b1234b",
        "server": "65535",
        "farm": 66,
        "title": "Her sun",
        "ispublic": 1,
        "isfriend": 0,
        "isfamily": 0
      },
      {
        "id": "48815770353",
        "owner": "150325729@N08",
        "secret": "24080ab0a9",
        "server": "65535",
        "farm": 66,
        "title": "AFRICAN WILDCAT KITTEN",
        "ispublic": 1,
        "isfriend": 0,
        "isfamily": 0
      },
      {
        "id": "48815084203",
        "owner": "135002429@N07",
        "secret": "c07ed2f5ec",
        "server": "65535",
        "farm": 66,
        "title": "'Tiffin (aged two)'",
        "ispublic": 1,
        "isfriend": 0,
        "isfamily": 0
      },
      {
        "id": "48814959278",
        "owner": "14727114@N03",
        "secret": "638a2ceb65",
        "server": "65535",
        "farm": 66,
        "title": "Sasha Day 7-5",
        "ispublic": 1,
        "isfriend": 0,
        "isfamily": 0
      },
      {
        "id": "48815299661",
        "owner": "35237097394@N01",
        "secret": "025e8f77ef",
        "server": "65535",
        "farm": 66,
        "title": "\"Don't mind me guys, just here for the water\" #thirsty #cats #CatsOfInstagram #kittens #goldfish #fishbowl",
        "ispublic": 1,
        "isfriend": 0,
        "isfamily": 0
      },
      {
        "id": "48815299511",
        "owner": "35237097394@N01",
        "secret": "c7bbc26f86",
        "server": "65535",
        "farm": 66,
        "title": "Hello Joey #cats #CatsOfInstagram #kitten #paws",
        "ispublic": 1,
        "isfriend": 0,
        "isfamily": 0
      },
      {
        "id": "48815325227",
        "owner": "43056966@N07",
        "secret": "f81f9cfb0a",
        "server": "65535",
        "farm": 66,
        "title": "Oh Hi! [Baska - 2 September 2019]",
        "ispublic": 1,
        "isfriend": 0,
        "isfamily": 0
      },
      {
        "id": "48815244062",
        "owner": "11273382@N02",
        "secret": "2dafeb513a",
        "server": "65535",
        "farm": 66,
        "title": "Alivia-1",
        "ispublic": 1,
        "isfriend": 0,
        "isfamily": 0
      },
      {
        "id": "48814737918",
        "owner": "11273382@N02",
        "secret": "1cd9c3d93e",
        "server": "65535",
        "farm": 66,
        "title": "Alivia-2",
        "ispublic": 1,
        "isfriend": 0,
        "isfamily": 0
      },
      {
        "id": "48814737598",
        "owner": "11273382@N02",
        "secret": "476809f090",
        "server": "65535",
        "farm": 66,
        "title": "Alivia-3",
        "ispublic": 1,
        "isfriend": 0,
        "isfamily": 0
      },
      {
        "id": "48815242822",
        "owner": "11273382@N02",
        "secret": "1db3ec3117",
        "server": "65535",
        "farm": 66,
        "title": "Alivia-4",
        "ispublic": 1,
        "isfriend": 0,
        "isfamily": 0
      },
      {
        "id": "48815093336",
        "owner": "11273382@N02",
        "secret": "7018c007bf",
        "server": "65535",
        "farm": 66,
        "title": "Alivia-5",
        "ispublic": 1,
        "isfriend": 0,
        "isfamily": 0
      },
      {
        "id": "48814736333",
        "owner": "63189170@N04",
        "secret": "60b0005efe",
        "server": "65535",
        "farm": 66,
        "title": "handmade Japanese cat ,handmade Japanese decor,Japanese doll,lovely cat decor,miniature,handmade home decor,handmade art dolls",
        "ispublic": 1,
        "isfriend": 0,
        "isfamily": 0
      },
      {
        "id": "48815241772",
        "owner": "11273382@N02",
        "secret": "19d1878dc7",
        "server": "65535",
        "farm": 66,
        "title": "Ardon-1",
        "ispublic": 1,
        "isfriend": 0,
        "isfamily": 0
      },
      {
        "id": "48814735313",
        "owner": "11273382@N02",
        "secret": "661646bcde",
        "server": "65535",
        "farm": 66,
        "title": "Ardon-2",
        "ispublic": 1,
        "isfriend": 0,
        "isfamily": 0
      },
      {
        "id": "48815240582",
        "owner": "11273382@N02",
        "secret": "e587e9206c",
        "server": "65535",
        "farm": 66,
        "title": "Ardon-3",
        "ispublic": 1,
        "isfriend": 0,
        "isfamily": 0
      },
      {
        "id": "48815239967",
        "owner": "11273382@N02",
        "secret": "d313944c5a",
        "server": "65535",
        "farm": 66,
        "title": "Ardon-4",
        "ispublic": 1,
        "isfriend": 0,
        "isfamily": 0
      },
      {
        "id": "48815090531",
        "owner": "11273382@N02",
        "secret": "4e94359f0d",
        "server": "65535",
        "farm": 66,
        "title": "Ardon-5",
        "ispublic": 1,
        "isfriend": 0,
        "isfamily": 0
      },
      {
        "id": "48814732928",
        "owner": "11273382@N02",
        "secret": "7a7fe1e01d",
        "server": "65535",
        "farm": 66,
        "title": "Demeter-1",
        "ispublic": 1,
        "isfriend": 0,
        "isfamily": 0
      },
      {
        "id": "48815237977",
        "owner": "11273382@N02",
        "secret": "51524343be",
        "server": "65535",
        "farm": 66,
        "title": "Demeter-2",
        "ispublic": 1,
        "isfriend": 0,
        "isfamily": 0
      },
      {
        "id": "48815088536",
        "owner": "11273382@N02",
        "secret": "a48860cfb2",
        "server": "65535",
        "farm": 66,
        "title": "Demeter-3",
        "ispublic": 1,
        "isfriend": 0,
        "isfamily": 0
      },
      {
        "id": "48815088226",
        "owner": "11273382@N02",
        "secret": "0ccf47a7fa",
        "server": "65535",
        "farm": 66,
        "title": "Demeter-4",
        "ispublic": 1,
        "isfriend": 0,
        "isfamily": 0
      },
      {
        "id": "48815236672",
        "owner": "11273382@N02",
        "secret": "0d5c7d84f8",
        "server": "65535",
        "farm": 66,
        "title": "Demeter-5",
        "ispublic": 1,
        "isfriend": 0,
        "isfamily": 0
      },
      {
        "id": "48815087406",
        "owner": "11273382@N02",
        "secret": "28a057277c",
        "server": "65535",
        "farm": 66,
        "title": "Demeter-6",
        "ispublic": 1,
        "isfriend": 0,
        "isfamily": 0
      },
      {
        "id": "48814730013",
        "owner": "11273382@N02",
        "secret": "44814ed267",
        "server": "65535",
        "farm": 66,
        "title": "Dunkin-1",
        "ispublic": 1,
        "isfriend": 0,
        "isfamily": 0
      },
      {
        "id": "48814729393",
        "owner": "11273382@N02",
        "secret": "37cb4113f9",
        "server": "65535",
        "farm": 66,
        "title": "Dunkin-2",
        "ispublic": 1,
        "isfriend": 0,
        "isfamily": 0
      },
      {
        "id": "48814728733",
        "owner": "11273382@N02",
        "secret": "d49da47068",
        "server": "65535",
        "farm": 66,
        "title": "Dunkin-3",
        "ispublic": 1,
        "isfriend": 0,
        "isfamily": 0
      },
      {
        "id": "48815233412",
        "owner": "11273382@N02",
        "secret": "138b643a72",
        "server": "65535",
        "farm": 66,
        "title": "Dunkin-4",
        "ispublic": 1,
        "isfriend": 0,
        "isfamily": 0
      },
      {
        "id": "48814726878",
        "owner": "11273382@N02",
        "secret": "6f4e186d97",
        "server": "65535",
        "farm": 66,
        "title": "Dunkin-5",
        "ispublic": 1,
        "isfriend": 0,
        "isfamily": 0
      },
      {
        "id": "48814726353",
        "owner": "11273382@N02",
        "secret": "38c1ea4bf7",
        "server": "65535",
        "farm": 66,
        "title": "Jelly-1",
        "ispublic": 1,
        "isfriend": 0,
        "isfamily": 0
      },
      {
        "id": "48814725378",
        "owner": "11273382@N02",
        "secret": "fe246a241e",
        "server": "65535",
        "farm": 66,
        "title": "Jelly-2",
        "ispublic": 1,
        "isfriend": 0,
        "isfamily": 0
      },
      {
        "id": "48815082071",
        "owner": "11273382@N02",
        "secret": "824f21e561",
        "server": "65535",
        "farm": 66,
        "title": "Jelly-3",
        "ispublic": 1,
        "isfriend": 0,
        "isfamily": 0
      },
      {
        "id": "48815081506",
        "owner": "11273382@N02",
        "secret": "8e3a157270",
        "server": "65535",
        "farm": 66,
        "title": "Jelly-4",
        "ispublic": 1,
        "isfriend": 0,
        "isfamily": 0
      },
      {
        "id": "48815229442",
        "owner": "11273382@N02",
        "secret": "fb49a1a396",
        "server": "65535",
        "farm": 66,
        "title": "Tigeress-1",
        "ispublic": 1,
        "isfriend": 0,
        "isfamily": 0
      },
      {
        "id": "48814723153",
        "owner": "11273382@N02",
        "secret": "d97e108a61",
        "server": "65535",
        "farm": 66,
        "title": "Tigeress-2",
        "ispublic": 1,
        "isfriend": 0,
        "isfamily": 0
      },
      {
        "id": "48815227947",
        "owner": "11273382@N02",
        "secret": "db582de5c6",
        "server": "65535",
        "farm": 66,
        "title": "Tigeress-3",
        "ispublic": 1,
        "isfriend": 0,
        "isfamily": 0
      },
      {
        "id": "48815227287",
        "owner": "11273382@N02",
        "secret": "47a3da5550",
        "server": "65535",
        "farm": 66,
        "title": "Tigeress-4",
        "ispublic": 1,
        "isfriend": 0,
        "isfamily": 0
      },
      {
        "id": "48814721553",
        "owner": "11273382@N02",
        "secret": "406461734c",
        "server": "65535",
        "farm": 66,
        "title": "Tigeress-5",
        "ispublic": 1,
        "isfriend": 0,
        "isfamily": 0
      },
      {
        "id": "48815167962",
        "owner": "150753869@N04",
        "secret": "039f534936",
        "server": "65535",
        "farm": 66,
        "title": "Not Myself show cast actress Lil Kitten",
        "ispublic": 1,
        "isfriend": 0,
        "isfamily": 0
      },
      {
        "id": "48814874536",
        "owner": "8185859@N08",
        "secret": "245bca9712",
        "server": "65535",
        "farm": 66,
        "title": "Lilli",
        "ispublic": 1,
        "isfriend": 0,
        "isfamily": 0
      },
      {
        "id": "48814516548",
        "owner": "51388540@N05",
        "secret": "eb205acee4",
        "server": "65535",
        "farm": 66,
        "title": "GFX2048 - Shower",
        "ispublic": 1,
        "isfriend": 0,
        "isfamily": 0
      },
      {
        "id": "48814766791",
        "owner": "133382028@N07",
        "secret": "044b125def",
        "server": "65535",
        "farm": 66,
        "title": "New creamy cat",
        "ispublic": 1,
        "isfriend": 0,
        "isfamily": 0
      },
      {
        "id": "48814906342",
        "owner": "41301592@N02",
        "secret": "482147e761",
        "server": "65535",
        "farm": 66,
        "title": "Three of Fluff's second litter of kittens at four weeks old.",
        "ispublic": 1,
        "isfriend": 0,
        "isfamily": 0
      },
      {
        "id": "48814399943",
        "owner": "41301592@N02",
        "secret": "9861b3095d",
        "server": "65535",
        "farm": 66,
        "title": "One of Fluff's second litter of kittens at four weeks old.",
        "ispublic": 1,
        "isfriend": 0,
        "isfamily": 0
      },
      {
        "id": "48814905707",
        "owner": "41301592@N02",
        "secret": "678c6115d7",
        "server": "65535",
        "farm": 66,
        "title": "Fluff and three of her second litter of kittens at four weeks old.",
        "ispublic": 1,
        "isfriend": 0,
        "isfamily": 0
      },
      {
        "id": "48814905547",
        "owner": "41301592@N02",
        "secret": "33e9cc7458",
        "server": "65535",
        "farm": 66,
        "title": "Fluff's suckling two of her kittens from the second litter, at four weeks old.",
        "ispublic": 1,
        "isfriend": 0,
        "isfamily": 0
      },
      {
        "id": "48814399153",
        "owner": "41301592@N02",
        "secret": "4883f4ea4d",
        "server": "65535",
        "farm": 66,
        "title": "One of Fluff's second litter of kittens at four weeks old.",
        "ispublic": 1,
        "isfriend": 0,
        "isfamily": 0
      },
      {
        "id": "48814754971",
        "owner": "41301592@N02",
        "secret": "12fcfcaeda",
        "server": "65535",
        "farm": 66,
        "title": "One of Fluff's second litter of kittens at four weeks old.",
        "ispublic": 1,
        "isfriend": 0,
        "isfamily": 0
      },
      {
        "id": "48814398653",
        "owner": "41301592@N02",
        "secret": "52b7f2256a",
        "server": "65535",
        "farm": 66,
        "title": "One of Fluff's second litter of kittens at four weeks old.",
        "ispublic": 1,
        "isfriend": 0,
        "isfamily": 0
      },
      {
        "id": "48814904677",
        "owner": "41301592@N02",
        "secret": "d68b7a5ba8",
        "server": "65535",
        "farm": 66,
        "title": "One of Fluff's second litter of kittens at four weeks old.",
        "ispublic": 1,
        "isfriend": 0,
        "isfamily": 0
      },
      {
        "id": "48814398293",
        "owner": "41301592@N02",
        "secret": "e5d061f0ce",
        "server": "65535",
        "farm": 66,
        "title": "Fluff suckling tree of her second litter of kittens, at four weeks old.",
        "ispublic": 1,
        "isfriend": 0,
        "isfamily": 0
      },
      {
        "id": "48814754251",
        "owner": "41301592@N02",
        "secret": "8df366c954",
        "server": "65535",
        "farm": 66,
        "title": "Fluff with her second litter of kittens at four weeks old.",
        "ispublic": 1,
        "isfriend": 0,
        "isfamily": 0
      },
      {
        "id": "48814753851",
        "owner": "41301592@N02",
        "secret": "2d9662b2a7",
        "server": "65535",
        "farm": 66,
        "title": "One of Fluff's second litter of kittens at four weeks old.",
        "ispublic": 1,
        "isfriend": 0,
        "isfamily": 0
      },
      {
        "id": "48814903702",
        "owner": "41301592@N02",
        "secret": "b0e0f28650",
        "server": "65535",
        "farm": 66,
        "title": "One of Fluff's second litter of kittens at four weeks old.",
        "ispublic": 1,
        "isfriend": 0,
        "isfamily": 0
      },
      {
        "id": "48814903417",
        "owner": "41301592@N02",
        "secret": "ba85d85586",
        "server": "65535",
        "farm": 66,
        "title": "One of Fluff's second litter of kittens at four weeks old.",
        "ispublic": 1,
        "isfriend": 0,
        "isfamily": 0
      },
      {
        "id": "48814751601",
        "owner": "152232432@N07",
        "secret": "070b6f871e",
        "server": "65535",
        "farm": 66,
        "title": "kitten",
        "ispublic": 1,
        "isfriend": 0,
        "isfamily": 0
      },
      {
        "id": "48814853487",
        "owner": "34523527@N03",
        "secret": "31f61b4be3",
        "server": "65535",
        "farm": 66,
        "title": "cat",
        "ispublic": 1,
        "isfriend": 0,
        "isfamily": 0
      },
      {
        "id": "48814346418",
        "owner": "34523527@N03",
        "secret": "7ac7c1be18",
        "server": "65535",
        "farm": 66,
        "title": "cat",
        "ispublic": 1,
        "isfriend": 0,
        "isfamily": 0
      },
      {
        "id": "48814701936",
        "owner": "34523527@N03",
        "secret": "c0646aaab8",
        "server": "65535",
        "farm": 66,
        "title": "cat",
        "ispublic": 1,
        "isfriend": 0,
        "isfamily": 0
      },
      {
        "id": "48813523553",
        "owner": "89892328@N02",
        "secret": "df6af30970",
        "server": "65535",
        "farm": 66,
        "title": "new \"Andres Machado\" kitten heels, nylons and silver anklet - close up series",
        "ispublic": 1,
        "isfriend": 0,
        "isfamily": 0
      },
      {
        "id": "48814027182",
        "owner": "89892328@N02",
        "secret": "97105db259",
        "server": "65535",
        "farm": 66,
        "title": "new \"Andres Machado\" kitten heels, nylons and silver anklet - close up series",
        "ispublic": 1,
        "isfriend": 0,
        "isfamily": 0
      },
      {
        "id": "48813523348",
        "owner": "89892328@N02",
        "secret": "10646c5b87",
        "server": "65535",
        "farm": 66,
        "title": "new \"Andres Machado\" kitten heels, nylons and silver anklet - close up series",
        "ispublic": 1,
        "isfriend": 0,
        "isfamily": 0
      },
      {
        "id": "48813523223",
        "owner": "89892328@N02",
        "secret": "63e49208b5",
        "server": "65535",
        "farm": 66,
        "title": "outdoor pic - new \"Andres Machado\" low heels",
        "ispublic": 1,
        "isfriend": 0,
        "isfamily": 0
      },
      {
        "id": "48814026847",
        "owner": "89892328@N02",
        "secret": "34daeb8b20",
        "server": "65535",
        "farm": 66,
        "title": "new \"Andres Machado\" kitten heels, nylons and silver anklet - close up series",
        "ispublic": 1,
        "isfriend": 0,
        "isfamily": 0
      },
      {
        "id": "48813877471",
        "owner": "89892328@N02",
        "secret": "a6d456923d",
        "server": "65535",
        "farm": 66,
        "title": "new \"Andres Machado\" kitten heels, nylons and silver anklet - close up series",
        "ispublic": 1,
        "isfriend": 0,
        "isfamily": 0
      },
      {
        "id": "48814026617",
        "owner": "89892328@N02",
        "secret": "428fc7ed71",
        "server": "65535",
        "farm": 66,
        "title": "new \"Andres Machado\" kitten heels, nylons and silver anklet - close up series",
        "ispublic": 1,
        "isfriend": 0,
        "isfamily": 0
      },
      {
        "id": "48813877206",
        "owner": "89892328@N02",
        "secret": "dda7f47fc0",
        "server": "65535",
        "farm": 66,
        "title": "new \"Andres Machado\" kitten heels, nylons and silver anklet - close up series",
        "ispublic": 1,
        "isfriend": 0,
        "isfamily": 0
      },
      {
        "id": "48813877121",
        "owner": "89892328@N02",
        "secret": "d9d0493bb2",
        "server": "65535",
        "farm": 66,
        "title": "new \"Andres Machado\" kitten heels, nylons and silver anklet - close up series",
        "ispublic": 1,
        "isfriend": 0,
        "isfamily": 0
      },
      {
        "id": "48816296428",
        "owner": "184177645@N03",
        "secret": "7fe3c54bfb",
        "server": "65535",
        "farm": 66,
        "title": "66655326_651537008694357_7192350133642592256_n",
        "ispublic": 1,
        "isfriend": 0,
        "isfamily": 0
      }
    ]
  },
  "stat": "ok"
}
